{
  "project_info": {
    "project_number": "43095330898",
    "firebase_url": "https://solucioneserp-softapp.firebaseio.com",
    "project_id": "solucioneserp-softapp",
    "storage_bucket": "solucioneserp-softapp.appspot.com"
  },
  "client": [
    {
      "client_info": {
        "mobilesdk_app_id": "1:43095330898:android:78465943f857d6412a0f8b",
        "android_client_info": {
          "package_name": "ar.soft.SolucionesERP"
        }
      },
      "oauth_client": [
        {
          "client_id": "43095330898-lta81prd00ob3er68i8no8jtpt0osld6.apps.googleusercontent.com",
          "client_type": 3
        }
      ],
      "api_key": [
        {
          "current_key": "AIzaSyDuQqWKKutjMwXyoiN1_DYe-Z4YUUJDFZ0"
        }
      ],
      "services": {
        "appinvite_service": {
          "other_platform_oauth_client": [
            {
              "client_id": "43095330898-lta81prd00ob3er68i8no8jtpt0osld6.apps.googleusercontent.com",
              "client_type": 3
            }
          ]
        }
      }
    }
  ],
  "configuration_version": "1"
}